^C:\USERS\АЛЕКСАНДР\DESKTOP\ANIMMANAGER\ANIMATIONMANAGER\ANIMATION.CPP|C:\USERS\АЛЕКСАНДР\DESKTOP\ANIMMANAGER\ANIMATIONMANAGER\MAIN.CPP|C:\USERS\АЛЕКСАНДР\DESKTOP\ANIMMANAGER\ANIMATIONMANAGER\TINYSTR.CPP|C:\USERS\АЛЕКСАНДР\DESKTOP\ANIMMANAGER\ANIMATIONMANAGER\TINYXML.CPP|C:\USERS\АЛЕКСАНДР\DESKTOP\ANIMMANAGER\ANIMATIONMANAGER\TINYXMLERROR.CPP|C:\USERS\АЛЕКСАНДР\DESKTOP\ANIMMANAGER\ANIMATIONMANAGER\TINYXMLPARSER.CPP
C:\USERS\александр\DESKTOP\ANIMMANAGER\ANIMATIONMANAGER\DEBUG\VC120.PDB
C:\USERS\александр\DESKTOP\ANIMMANAGER\ANIMATIONMANAGER\DEBUG\VC120.IDB
C:\USERS\Александр\DESKTOP\ANIMMANAGER\ANIMATIONMANAGER\DEBUG\ANIMATION.OBJ
C:\USERS\Александр\DESKTOP\ANIMMANAGER\ANIMATIONMANAGER\DEBUG\MAIN.OBJ
C:\USERS\Александр\DESKTOP\ANIMMANAGER\ANIMATIONMANAGER\DEBUG\TINYSTR.OBJ
C:\USERS\Александр\DESKTOP\ANIMMANAGER\ANIMATIONMANAGER\DEBUG\TINYXML.OBJ
C:\USERS\Александр\DESKTOP\ANIMMANAGER\ANIMATIONMANAGER\DEBUG\TINYXMLERROR.OBJ
C:\USERS\Александр\DESKTOP\ANIMMANAGER\ANIMATIONMANAGER\DEBUG\TINYXMLPARSER.OBJ
^C:\USERS\АЛЕКСАНДР\DESKTOP\ANIMMANAGER\ANIMATIONMANAGER\ANIMATION.CPP
C:\USERS\АЛЕКСАНДР\DESKTOP\ANIMMANAGER\ANIMATIONMANAGER\DEBUG\VC120.PDB
C:\USERS\александр\DESKTOP\ANIMMANAGER\ANIMATIONMANAGER\DEBUG\VC120.IDB
C:\USERS\Александр\DESKTOP\ANIMMANAGER\ANIMATIONMANAGER\DEBUG\ANIMATION.OBJ
^C:\USERS\АЛЕКСАНДР\DESKTOP\ANIMMANAGER\ANIMATIONMANAGER\MAIN.CPP
C:\USERS\АЛЕКСАНДР\DESKTOP\ANIMMANAGER\ANIMATIONMANAGER\DEBUG\VC120.PDB
C:\USERS\александр\DESKTOP\ANIMMANAGER\ANIMATIONMANAGER\DEBUG\VC120.IDB
C:\USERS\Александр\DESKTOP\ANIMMANAGER\ANIMATIONMANAGER\DEBUG\MAIN.OBJ
^C:\USERS\АЛЕКСАНДР\DESKTOP\ANIMMANAGER\ANIMATIONMANAGER\TINYSTR.CPP
C:\USERS\АЛЕКСАНДР\DESKTOP\ANIMMANAGER\ANIMATIONMANAGER\DEBUG\VC120.PDB
^C:\USERS\АЛЕКСАНДР\DESKTOP\ANIMMANAGER\ANIMATIONMANAGER\TINYXML.CPP
C:\USERS\АЛЕКСАНДР\DESKTOP\ANIMMANAGER\ANIMATIONMANAGER\DEBUG\VC120.PDB
^C:\USERS\АЛЕКСАНДР\DESKTOP\ANIMMANAGER\ANIMATIONMANAGER\TINYXMLERROR.CPP
C:\USERS\АЛЕКСАНДР\DESKTOP\ANIMMANAGER\ANIMATIONMANAGER\DEBUG\VC120.PDB
^C:\USERS\АЛЕКСАНДР\DESKTOP\ANIMMANAGER\ANIMATIONMANAGER\TINYXMLPARSER.CPP
C:\USERS\АЛЕКСАНДР\DESKTOP\ANIMMANAGER\ANIMATIONMANAGER\DEBUG\VC120.PDB
^C:\USERS\АЛЕКСАНДР\DESKTOP\ANIMMANAGER\ANIMATIONMANAGER\ANIMATION.CPP|C:\USERS\АЛЕКСАНДР\DESKTOP\ANIMMANAGER\ANIMATIONMANAGER\MAIN.CPP
C:\USERS\александр\DESKTOP\ANIMMANAGER\ANIMATIONMANAGER\DEBUG\VC120.PDB
C:\USERS\александр\DESKTOP\ANIMMANAGER\ANIMATIONMANAGER\DEBUG\VC120.IDB
C:\USERS\Александр\DESKTOP\ANIMMANAGER\ANIMATIONMANAGER\DEBUG\MAIN.OBJ
^C:\USERS\АЛЕКСАНДР\DESKTOP\ANIMMANAGER\ANIMATIONMANAGER\ANIMATION.CPP|C:\USERS\АЛЕКСАНДР\DESKTOP\ANIMMANAGER\ANIMATIONMANAGER\MAIN.CPP|C:\USERS\АЛЕКСАНДР\DESKTOP\ANIMMANAGER\ANIMATIONMANAGER\TINYXML\TINYSTR.CPP|C:\USERS\АЛЕКСАНДР\DESKTOP\ANIMMANAGER\ANIMATIONMANAGER\TINYXML\TINYXML.CPP|C:\USERS\АЛЕКСАНДР\DESKTOP\ANIMMANAGER\ANIMATIONMANAGER\TINYXML\TINYXMLERROR.CPP|C:\USERS\АЛЕКСАНДР\DESKTOP\ANIMMANAGER\ANIMATIONMANAGER\TINYXML\TINYXMLPARSER.CPP
C:\USERS\александр\DESKTOP\ANIMMANAGER\ANIMATIONMANAGER\DEBUG\VC120.PDB
C:\USERS\александр\DESKTOP\ANIMMANAGER\ANIMATIONMANAGER\DEBUG\VC120.IDB
C:\USERS\Александр\DESKTOP\ANIMMANAGER\ANIMATIONMANAGER\DEBUG\MAIN.OBJ
C:\USERS\Александр\DESKTOP\ANIMMANAGER\ANIMATIONMANAGER\DEBUG\TINYSTR.OBJ
C:\USERS\Александр\DESKTOP\ANIMMANAGER\ANIMATIONMANAGER\DEBUG\TINYXML.OBJ
C:\USERS\Александр\DESKTOP\ANIMMANAGER\ANIMATIONMANAGER\DEBUG\TINYXMLERROR.OBJ
C:\USERS\Александр\DESKTOP\ANIMMANAGER\ANIMATIONMANAGER\DEBUG\TINYXMLPARSER.OBJ
C:\USERS\Александр\DESKTOP\ANIMMANAGER\ANIMATIONMANAGER\DEBUG\ANIMATION.OBJ
^C:\USERS\АЛЕКСАНДР\DESKTOP\ANIMMANAGER\ANIMATIONMANAGER\TINYXML\TINYSTR.CPP
C:\USERS\АЛЕКСАНДР\DESKTOP\ANIMMANAGER\ANIMATIONMANAGER\DEBUG\VC120.PDB
^C:\USERS\АЛЕКСАНДР\DESKTOP\ANIMMANAGER\ANIMATIONMANAGER\TINYXML\TINYXML.CPP
C:\USERS\АЛЕКСАНДР\DESKTOP\ANIMMANAGER\ANIMATIONMANAGER\DEBUG\VC120.PDB
^C:\USERS\АЛЕКСАНДР\DESKTOP\ANIMMANAGER\ANIMATIONMANAGER\TINYXML\TINYXMLERROR.CPP
C:\USERS\АЛЕКСАНДР\DESKTOP\ANIMMANAGER\ANIMATIONMANAGER\DEBUG\VC120.PDB
^C:\USERS\АЛЕКСАНДР\DESKTOP\ANIMMANAGER\ANIMATIONMANAGER\TINYXML\TINYXMLPARSER.CPP
C:\USERS\АЛЕКСАНДР\DESKTOP\ANIMMANAGER\ANIMATIONMANAGER\DEBUG\VC120.PDB
